<?xml version="1.0" encoding="UTF-8" standalone="no"?>
<!DOCTYPE svg PUBLIC "-//W3C//DTD SVG 1.1//EN"
 "http://www.w3.org/Graphics/SVG/1.1/DTD/svg11.dtd">
<!-- Generated by graphviz version 2.40.1 (0)
 -->
<!-- Title: G Pages: 1 -->
<svg width="840pt" height="686pt"
 viewBox="0.00 0.00 840.00 686.00" xmlns="http://www.w3.org/2000/svg" xmlns:xlink="http://www.w3.org/1999/xlink">
<g id="graph0" class="graph" transform="scale(1 1) rotate(0) translate(4 682)">
<title>G</title>
<polygon fill="#ffffff" stroke="transparent" points="-4,4 -4,-682 836,-682 836,4 -4,4"/>
<g id="clust1" class="cluster">
<title>cluster_Global</title>
<path fill="none" stroke="#c0c0c0" d="M20,-8C20,-8 812,-8 812,-8 818,-8 824,-14 824,-20 824,-20 824,-658 824,-658 824,-664 818,-670 812,-670 812,-670 20,-670 20,-670 14,-670 8,-664 8,-658 8,-658 8,-20 8,-20 8,-14 14,-8 20,-8"/>
<text text-anchor="middle" x="416" y="-657.2" font-family="Times,serif" font-size="11.00" fill="#c0c0c0">Global</text>
</g>
<g id="clust2" class="cluster">
<title>cluster_\DataExplorer</title>
<path fill="none" stroke="#c0c0c0" d="M28,-16C28,-16 804,-16 804,-16 810,-16 816,-22 816,-28 816,-28 816,-630 816,-630 816,-636 810,-642 804,-642 804,-642 28,-642 28,-642 22,-642 16,-636 16,-630 16,-630 16,-28 16,-28 16,-22 22,-16 28,-16"/>
<text text-anchor="middle" x="416" y="-629.2" font-family="Times,serif" font-size="11.00" fill="#c0c0c0">DataExplorer</text>
</g>
<g id="clust3" class="cluster">
<title>cluster_\DataExplorer\Component</title>
<path fill="none" stroke="#c0c0c0" d="M36,-68C36,-68 796,-68 796,-68 802,-68 808,-74 808,-80 808,-80 808,-602 808,-602 808,-608 802,-614 796,-614 796,-614 36,-614 36,-614 30,-614 24,-608 24,-602 24,-602 24,-80 24,-80 24,-74 30,-68 36,-68"/>
<text text-anchor="middle" x="416" y="-601.2" font-family="Times,serif" font-size="11.00" fill="#c0c0c0">Component</text>
</g>
<g id="clust4" class="cluster">
<title>cluster_\DataExplorer\Component\Text</title>
<path fill="none" stroke="#c0c0c0" d="M319.5,-192C319.5,-192 632,-192 632,-192 638,-192 644,-198 644,-204 644,-204 644,-306 644,-306 644,-312 638,-318 632,-318 632,-318 319.5,-318 319.5,-318 313.5,-318 307.5,-312 307.5,-306 307.5,-306 307.5,-204 307.5,-204 307.5,-198 313.5,-192 319.5,-192"/>
<text text-anchor="middle" x="475.75" y="-305.2" font-family="Times,serif" font-size="11.00" fill="#c0c0c0">Text</text>
</g>
<g id="clust5" class="cluster">
<title>cluster_\DataExplorer\Component\Form</title>
<path fill="none" stroke="#c0c0c0" d="M184,-326C184,-326 504,-326 504,-326 510,-326 516,-332 516,-338 516,-338 516,-574 516,-574 516,-580 510,-586 504,-586 504,-586 184,-586 184,-586 178,-586 172,-580 172,-574 172,-574 172,-338 172,-338 172,-332 178,-326 184,-326"/>
<text text-anchor="middle" x="344" y="-573.2" font-family="Times,serif" font-size="11.00" fill="#c0c0c0">Form</text>
</g>
<g id="clust6" class="cluster">
<title>cluster_\DataExplorer\Component\Form\Input</title>
<path fill="none" stroke="#c0c0c0" d="M192,-334C192,-334 496,-334 496,-334 502,-334 508,-340 508,-346 508,-346 508,-502 508,-502 508,-508 502,-514 496,-514 496,-514 192,-514 192,-514 186,-514 180,-508 180,-502 180,-502 180,-346 180,-346 180,-340 186,-334 192,-334"/>
<text text-anchor="middle" x="344" y="-501.2" font-family="Times,serif" font-size="11.00" fill="#c0c0c0">Input</text>
</g>
<g id="clust7" class="cluster">
<title>cluster_\DataExplorer\Component\Container</title>
<path fill="none" stroke="#c0c0c0" d="M192,-76C192,-76 788,-76 788,-76 794,-76 800,-82 800,-88 800,-88 800,-172 800,-172 800,-178 794,-184 788,-184 788,-184 192,-184 192,-184 186,-184 180,-178 180,-172 180,-172 180,-88 180,-88 180,-82 186,-76 192,-76"/>
<text text-anchor="middle" x="490" y="-171.2" font-family="Times,serif" font-size="11.00" fill="#c0c0c0">Container</text>
</g>
<g id="clust8" class="cluster">
<title>cluster_\DataExplorer\Component\Container\Table</title>
<path fill="none" stroke="#c0c0c0" d="M319.5,-84C319.5,-84 780,-84 780,-84 786,-84 792,-90 792,-96 792,-96 792,-144 792,-144 792,-150 786,-156 780,-156 780,-156 319.5,-156 319.5,-156 313.5,-156 307.5,-150 307.5,-144 307.5,-144 307.5,-96 307.5,-96 307.5,-90 313.5,-84 319.5,-84"/>
<text text-anchor="middle" x="549.75" y="-143.2" font-family="Times,serif" font-size="11.00" fill="#c0c0c0">Table</text>
</g>
<!-- \\DataExplorer\\Component\\Text\\Span -->
<g id="node1" class="node">
<title>\\DataExplorer\\Component\\Text\\Span</title>
<polygon fill="none" stroke="#000000" points="498.5,-236 444.5,-236 444.5,-200 498.5,-200 498.5,-236"/>
<text text-anchor="middle" x="471.5" y="-215.2" font-family="Courier,monospace" font-size="11.00" fill="#000000">Span</text>
</g>
<!-- \\DataExplorer\\Component\\Text\\P -->
<g id="node4" class="node">
<title>\\DataExplorer\\Component\\Text\\P</title>
<polygon fill="none" stroke="#000000" points="369.5,-236 315.5,-236 315.5,-200 369.5,-200 369.5,-236"/>
<text text-anchor="middle" x="342.5" y="-215.2" font-family="Courier,monospace" font-size="11.00" fill="#000000">P</text>
</g>
<!-- \\DataExplorer\\Component\\Text\\Span&#45;&gt;\\DataExplorer\\Component\\Text\\P -->
<g id="edge1" class="edge">
<title>\\DataExplorer\\Component\\Text\\Span&#45;&gt;\\DataExplorer\\Component\\Text\\P</title>
<path fill="none" stroke="#000000" d="M444.4574,-218C425.623,-218 400.2676,-218 379.5542,-218"/>
<polygon fill="none" stroke="#000000" points="379.5071,-214.5001 369.507,-218 379.507,-221.5001 379.5071,-214.5001"/>
</g>
<!-- \\DataExplorer\\Component\\Text\\Label -->
<g id="node2" class="node">
<title>\\DataExplorer\\Component\\Text\\Label</title>
<polygon fill="none" stroke="#000000" points="498.5,-290 444.5,-290 444.5,-254 498.5,-254 498.5,-290"/>
<text text-anchor="middle" x="471.5" y="-269.2" font-family="Courier,monospace" font-size="11.00" fill="#000000">Label</text>
</g>
<!-- \\DataExplorer\\Component\\Text\\Label&#45;&gt;\\DataExplorer\\Component\\Text\\P -->
<g id="edge2" class="edge">
<title>\\DataExplorer\\Component\\Text\\Label&#45;&gt;\\DataExplorer\\Component\\Text\\P</title>
<path fill="none" stroke="#000000" d="M444.4574,-260.6798C425.451,-252.7237 399.8039,-241.9877 378.9879,-233.274"/>
<polygon fill="none" stroke="#000000" points="380.0829,-229.9382 369.507,-229.3053 377.3799,-236.3953 380.0829,-229.9382"/>
</g>
<!-- \\DataExplorer\\Component\\Text\\Caption -->
<g id="node3" class="node">
<title>\\DataExplorer\\Component\\Text\\Caption</title>
<polygon fill="none" stroke="#000000" points="636,-290 572,-290 572,-254 636,-254 636,-290"/>
<text text-anchor="middle" x="604" y="-269.2" font-family="Courier,monospace" font-size="11.00" fill="#000000">Caption</text>
</g>
<!-- \\DataExplorer\\Component\\Text\\Caption&#45;&gt;\\DataExplorer\\Component\\Text\\Span -->
<g id="edge3" class="edge">
<title>\\DataExplorer\\Component\\Text\\Caption&#45;&gt;\\DataExplorer\\Component\\Text\\Span</title>
<path fill="none" stroke="#000000" d="M571.9254,-258.9281C552.7063,-251.0954 528.203,-241.1092 508.2119,-232.9618"/>
<polygon fill="none" stroke="#000000" points="509.3849,-229.6604 498.8035,-229.1274 506.743,-236.1428 509.3849,-229.6604"/>
</g>
<!-- \\DataExplorer\\Component\\Container\\Div -->
<g id="node16" class="node">
<title>\\DataExplorer\\Component\\Container\\Div</title>
<polygon fill="none" stroke="#000000" points="242,-156 188,-156 188,-120 242,-120 242,-156"/>
<text text-anchor="middle" x="215" y="-135.2" font-family="Courier,monospace" font-size="11.00" fill="#000000">Div</text>
</g>
<!-- \\DataExplorer\\Component\\Text\\P&#45;&gt;\\DataExplorer\\Component\\Container\\Div -->
<g id="edge4" class="edge">
<title>\\DataExplorer\\Component\\Text\\P&#45;&gt;\\DataExplorer\\Component\\Container\\Div</title>
<path fill="none" stroke="#000000" d="M315.4605,-201.0341C296.528,-189.1548 271.0426,-173.164 250.4788,-160.2612"/>
<polygon fill="none" stroke="#000000" points="252.3314,-157.2917 242.0005,-154.9415 248.6109,-163.2212 252.3314,-157.2917"/>
</g>
<!-- \\DataExplorer\\Component\\Text\\A -->
<g id="node5" class="node">
<title>\\DataExplorer\\Component\\Text\\A</title>
<polygon fill="none" stroke="#000000" points="631,-236 577,-236 577,-200 631,-200 631,-236"/>
<text text-anchor="middle" x="604" y="-215.2" font-family="Courier,monospace" font-size="11.00" fill="#000000">A</text>
</g>
<!-- \\DataExplorer\\Component\\Text\\A&#45;&gt;\\DataExplorer\\Component\\Text\\Span -->
<g id="edge5" class="edge">
<title>\\DataExplorer\\Component\\Text\\A&#45;&gt;\\DataExplorer\\Component\\Text\\Span</title>
<path fill="none" stroke="#000000" d="M576.8669,-218C557.2172,-218 530.4148,-218 508.76,-218"/>
<polygon fill="none" stroke="#000000" points="508.5968,-214.5001 498.5968,-218 508.5968,-221.5001 508.5968,-214.5001"/>
</g>
<!-- \\DataExplorer\\Component\\Form\\Input\\Hidden -->
<g id="node6" class="node">
<title>\\DataExplorer\\Component\\Form\\Input\\Hidden</title>
<polygon fill="none" stroke="#000000" points="371,-378 314,-378 314,-342 371,-342 371,-378"/>
<text text-anchor="middle" x="342.5" y="-357.2" font-family="Courier,monospace" font-size="11.00" fill="#000000">Hidden</text>
</g>
<!-- \\DataExplorer\\Component\\Form\\Input\\Input -->
<g id="node10" class="node">
<title>\\DataExplorer\\Component\\Form\\Input\\Input</title>
<polygon fill="none" stroke="#000000" points="242,-432 188,-432 188,-396 242,-396 242,-432"/>
<text text-anchor="middle" x="215" y="-411.2" font-family="Courier,monospace" font-size="11.00" fill="#000000">Input</text>
</g>
<!-- \\DataExplorer\\Component\\Form\\Input\\Hidden&#45;&gt;\\DataExplorer\\Component\\Form\\Input\\Input -->
<g id="edge6" class="edge">
<title>\\DataExplorer\\Component\\Form\\Input\\Hidden&#45;&gt;\\DataExplorer\\Component\\Form\\Input\\Input</title>
<path fill="none" stroke="#000000" d="M313.8865,-372.1187C295.4626,-379.9217 271.3447,-390.1364 251.5398,-398.5243"/>
<polygon fill="none" stroke="#000000" points="250.051,-395.3539 242.2078,-402.4767 252.781,-401.7996 250.051,-395.3539"/>
</g>
<!-- \\DataExplorer\\Component\\Form\\Input\\Number -->
<g id="node7" class="node">
<title>\\DataExplorer\\Component\\Form\\Input\\Number</title>
<polygon fill="none" stroke="#000000" points="371,-486 314,-486 314,-450 371,-450 371,-486"/>
<text text-anchor="middle" x="342.5" y="-465.2" font-family="Courier,monospace" font-size="11.00" fill="#000000">Number</text>
</g>
<!-- \\DataExplorer\\Component\\Form\\Input\\Number&#45;&gt;\\DataExplorer\\Component\\Form\\Input\\Input -->
<g id="edge7" class="edge">
<title>\\DataExplorer\\Component\\Form\\Input\\Number&#45;&gt;\\DataExplorer\\Component\\Form\\Input\\Input</title>
<path fill="none" stroke="#000000" d="M313.8865,-455.8813C295.4626,-448.0783 271.3447,-437.8636 251.5398,-429.4757"/>
<polygon fill="none" stroke="#000000" points="252.781,-426.2004 242.2078,-425.5233 250.051,-432.6461 252.781,-426.2004"/>
</g>
<!-- \\DataExplorer\\Component\\Form\\Input\\Email -->
<g id="node8" class="node">
<title>\\DataExplorer\\Component\\Form\\Input\\Email</title>
<polygon fill="none" stroke="#000000" points="369.5,-432 315.5,-432 315.5,-396 369.5,-396 369.5,-432"/>
<text text-anchor="middle" x="342.5" y="-411.2" font-family="Courier,monospace" font-size="11.00" fill="#000000">Email</text>
</g>
<!-- \\DataExplorer\\Component\\Form\\Input\\Email&#45;&gt;\\DataExplorer\\Component\\Form\\Input\\Input -->
<g id="edge8" class="edge">
<title>\\DataExplorer\\Component\\Form\\Input\\Email&#45;&gt;\\DataExplorer\\Component\\Form\\Input\\Input</title>
<path fill="none" stroke="#000000" d="M315.4605,-414C297.0351,-414 272.4032,-414 252.1416,-414"/>
<polygon fill="none" stroke="#000000" points="252.0005,-410.5001 242.0005,-414 252.0005,-417.5001 252.0005,-410.5001"/>
</g>
<!-- \\DataExplorer\\Component\\Form\\Input\\Submit -->
<g id="node9" class="node">
<title>\\DataExplorer\\Component\\Form\\Input\\Submit</title>
<polygon fill="none" stroke="#000000" points="500,-378 443,-378 443,-342 500,-342 500,-378"/>
<text text-anchor="middle" x="471.5" y="-357.2" font-family="Courier,monospace" font-size="11.00" fill="#000000">Submit</text>
</g>
<!-- \\DataExplorer\\Component\\Form\\Input\\Submit&#45;&gt;\\DataExplorer\\Component\\Form\\Input\\Hidden -->
<g id="edge9" class="edge">
<title>\\DataExplorer\\Component\\Form\\Input\\Submit&#45;&gt;\\DataExplorer\\Component\\Form\\Input\\Hidden</title>
<path fill="none" stroke="#000000" d="M442.8707,-360C424.7499,-360 401.0906,-360 381.2941,-360"/>
<polygon fill="none" stroke="#000000" points="381.0493,-356.5001 371.0493,-360 381.0492,-363.5001 381.0493,-356.5001"/>
</g>
<!-- \\DataExplorer\\Component\\Component -->
<g id="node17" class="node">
<title>\\DataExplorer\\Component\\Component</title>
<polygon fill="none" stroke="#000000" points="116,-432 32,-432 32,-396 116,-396 116,-432"/>
<text text-anchor="start" x="40" y="-417.2" font-family="Courier,monospace" font-size="11.00" fill="#000000">«abstract»</text>
<text text-anchor="start" x="43.5" y="-405.2" font-family="Courier,monospace" font-size="11.00" fill="#000000">Component</text>
</g>
<!-- \\DataExplorer\\Component\\Form\\Input\\Input&#45;&gt;\\DataExplorer\\Component\\Component -->
<g id="edge10" class="edge">
<title>\\DataExplorer\\Component\\Form\\Input\\Input&#45;&gt;\\DataExplorer\\Component\\Component</title>
<path fill="none" stroke="#000000" d="M187.8138,-414C170.3458,-414 147.0855,-414 126.1468,-414"/>
<polygon fill="none" stroke="#000000" points="126.0898,-410.5001 116.0898,-414 126.0898,-417.5001 126.0898,-410.5001"/>
</g>
<!-- \\DataExplorer\\Component\\Form\\Form -->
<g id="node11" class="node">
<title>\\DataExplorer\\Component\\Form\\Form</title>
<polygon fill="none" stroke="#000000" points="498.5,-558 444.5,-558 444.5,-522 498.5,-522 498.5,-558"/>
<text text-anchor="middle" x="471.5" y="-537.2" font-family="Courier,monospace" font-size="11.00" fill="#000000">Form</text>
</g>
<!-- \\DataExplorer\\Component\\Form\\Form&#45;&gt;\\DataExplorer\\Component\\Component -->
<g id="edge11" class="edge">
<title>\\DataExplorer\\Component\\Form\\Form&#45;&gt;\\DataExplorer\\Component\\Component</title>
<path fill="none" stroke="#000000" d="M444.2256,-544.2899C389.5229,-551.586 263.7998,-561.6904 172,-518 136.6867,-501.1933 107.7036,-465.6495 90.645,-440.8175"/>
<polygon fill="none" stroke="#000000" points="93.3669,-438.5903 84.9101,-432.208 87.541,-442.471 93.3669,-438.5903"/>
</g>
<!-- \\DataExplorer\\Component\\Container\\Table\\Tr -->
<g id="node12" class="node">
<title>\\DataExplorer\\Component\\Container\\Table\\Tr</title>
<polygon fill="none" stroke="#000000" points="498.5,-128 444.5,-128 444.5,-92 498.5,-92 498.5,-128"/>
<text text-anchor="middle" x="471.5" y="-107.2" font-family="Courier,monospace" font-size="11.00" fill="#000000">Tr</text>
</g>
<!-- \\DataExplorer\\Component\\Container\\Table\\Table -->
<g id="node13" class="node">
<title>\\DataExplorer\\Component\\Container\\Table\\Table</title>
<polygon fill="none" stroke="#000000" points="369.5,-128 315.5,-128 315.5,-92 369.5,-92 369.5,-128"/>
<text text-anchor="middle" x="342.5" y="-107.2" font-family="Courier,monospace" font-size="11.00" fill="#000000">Table</text>
</g>
<!-- \\DataExplorer\\Component\\Container\\Table\\Tr&#45;&gt;\\DataExplorer\\Component\\Container\\Table\\Table -->
<g id="edge12" class="edge">
<title>\\DataExplorer\\Component\\Container\\Table\\Tr&#45;&gt;\\DataExplorer\\Component\\Container\\Table\\Table</title>
<path fill="none" stroke="#000000" d="M444.4574,-110C425.623,-110 400.2676,-110 379.5542,-110"/>
<polygon fill="none" stroke="#000000" points="379.5071,-106.5001 369.507,-110 379.507,-113.5001 379.5071,-106.5001"/>
</g>
<!-- \\DataExplorer\\Component\\Container\\Table\\Table&#45;&gt;\\DataExplorer\\Component\\Container\\Div -->
<g id="edge13" class="edge">
<title>\\DataExplorer\\Component\\Container\\Table\\Table&#45;&gt;\\DataExplorer\\Component\\Container\\Div</title>
<path fill="none" stroke="#000000" d="M315.4605,-115.9381C296.9506,-120.003 272.1771,-125.4435 251.8631,-129.9046"/>
<polygon fill="none" stroke="#000000" points="251.017,-126.5069 242.0005,-132.0705 252.5185,-133.344 251.017,-126.5069"/>
</g>
<!-- \\DataExplorer\\Component\\Container\\Table\\Th -->
<g id="node14" class="node">
<title>\\DataExplorer\\Component\\Container\\Table\\Th</title>
<polygon fill="none" stroke="#000000" points="784,-128 730,-128 730,-92 784,-92 784,-128"/>
<text text-anchor="middle" x="757" y="-107.2" font-family="Courier,monospace" font-size="11.00" fill="#000000">Th</text>
</g>
<!-- \\DataExplorer\\Component\\Container\\Table\\Td -->
<g id="node15" class="node">
<title>\\DataExplorer\\Component\\Container\\Table\\Td</title>
<polygon fill="none" stroke="#000000" points="631,-128 577,-128 577,-92 631,-92 631,-128"/>
<text text-anchor="middle" x="604" y="-107.2" font-family="Courier,monospace" font-size="11.00" fill="#000000">Td</text>
</g>
<!-- \\DataExplorer\\Component\\Container\\Table\\Th&#45;&gt;\\DataExplorer\\Component\\Container\\Table\\Td -->
<g id="edge14" class="edge">
<title>\\DataExplorer\\Component\\Container\\Table\\Th&#45;&gt;\\DataExplorer\\Component\\Container\\Table\\Td</title>
<path fill="none" stroke="#000000" d="M729.9989,-110C705.3523,-110 668.6931,-110 641.2627,-110"/>
<polygon fill="none" stroke="#000000" points="641.2459,-106.5001 631.2459,-110 641.2458,-113.5001 641.2459,-106.5001"/>
</g>
<!-- \\DataExplorer\\Component\\Container\\Table\\Td&#45;&gt;\\DataExplorer\\Component\\Container\\Table\\Tr -->
<g id="edge15" class="edge">
<title>\\DataExplorer\\Component\\Container\\Table\\Td&#45;&gt;\\DataExplorer\\Component\\Container\\Table\\Tr</title>
<path fill="none" stroke="#000000" d="M576.8669,-110C557.2172,-110 530.4148,-110 508.76,-110"/>
<polygon fill="none" stroke="#000000" points="508.5968,-106.5001 498.5968,-110 508.5968,-113.5001 508.5968,-106.5001"/>
</g>
<!-- \\DataExplorer\\Component\\Container\\Div&#45;&gt;\\DataExplorer\\Component\\Component -->
<g id="edge16" class="edge">
<title>\\DataExplorer\\Component\\Container\\Div&#45;&gt;\\DataExplorer\\Component\\Component</title>
<path fill="none" stroke="#000000" d="M205.7486,-156.1091C181.5974,-203.3838 116.5388,-330.7325 87.8791,-386.8325"/>
<polygon fill="none" stroke="#000000" points="84.7181,-385.3267 83.2855,-395.8242 90.9518,-388.5113 84.7181,-385.3267"/>
</g>
<!-- \\DataExplorer\\DataExplorer -->
<g id="node18" class="node">
<title>\\DataExplorer\\DataExplorer</title>
<polygon fill="none" stroke="#000000" points="806,-60 708,-60 708,-24 806,-24 806,-60"/>
<text text-anchor="middle" x="757" y="-39.2" font-family="Courier,monospace" font-size="11.00" fill="#000000">DataExplorer</text>
</g>
</g>
</svg>
